info face="Intro" size=40 bold=0 italic=0 charset="" unicode=0 stretchH=100 smooth=1 aa=1 padding=0,0,0,0 spacing=0,0
common lineHeight=41 base=31 scaleW=448 scaleH=384 pages=1 packed=0
page id=0 file="Intro-40-white.png"
chars count=132
char id=32 x=2 y=2 width=0 height=0 xoffset=0 yoffset=31 xadvance=11 page=0 chnl=0
char id=48 x=18 y=2 width=24 height=32 xoffset=4 yoffset=1 xadvance=28 page=0 chnl=0
char id=49 x=18 y=36 width=18 height=32 xoffset=1 yoffset=1 xadvance=18 page=0 chnl=0
char id=50 x=18 y=70 width=24 height=32 xoffset=1 yoffset=1 xadvance=22 page=0 chnl=0
char id=51 x=18 y=104 width=22 height=32 xoffset=2 yoffset=1 xadvance=23 page=0 chnl=0
char id=52 x=18 y=138 width=24 height=32 xoffset=1 yoffset=1 xadvance=24 page=0 chnl=0
char id=53 x=18 y=172 width=22 height=32 xoffset=3 yoffset=1 xadvance=24 page=0 chnl=0
char id=54 x=18 y=206 width=24 height=32 xoffset=2 yoffset=1 xadvance=25 page=0 chnl=0
char id=55 x=18 y=240 width=24 height=32 xoffset=1 yoffset=1 xadvance=22 page=0 chnl=0
char id=56 x=44 y=2 width=30 height=32 xoffset=-1 yoffset=1 xadvance=25 page=0 chnl=0
char id=57 x=18 y=274 width=24 height=32 xoffset=2 yoffset=1 xadvance=25 page=0 chnl=0
char id=64 x=76 y=2 width=34 height=34 xoffset=2 yoffset=2 xadvance=35 page=0 chnl=0
char id=65 x=112 y=2 width=32 height=32 xoffset=1 yoffset=1 xadvance=29 page=0 chnl=0
char id=66 x=18 y=308 width=24 height=32 xoffset=4 yoffset=1 xadvance=28 page=0 chnl=0
char id=67 x=44 y=36 width=30 height=32 xoffset=2 yoffset=1 xadvance=32 page=0 chnl=0
char id=68 x=146 y=2 width=32 height=32 xoffset=4 yoffset=1 xadvance=30 page=0 chnl=0
char id=69 x=18 y=342 width=20 height=32 xoffset=4 yoffset=1 xadvance=24 page=0 chnl=0
char id=70 x=44 y=70 width=20 height=32 xoffset=4 yoffset=1 xadvance=23 page=0 chnl=0
char id=71 x=44 y=104 width=30 height=32 xoffset=2 yoffset=1 xadvance=32 page=0 chnl=0
char id=72 x=44 y=138 width=26 height=32 xoffset=4 yoffset=1 xadvance=31 page=0 chnl=0
char id=73 x=44 y=172 width=18 height=32 xoffset=2 yoffset=1 xadvance=17 page=0 chnl=0
char id=74 x=44 y=206 width=24 height=32 xoffset=2 yoffset=1 xadvance=27 page=0 chnl=0
char id=75 x=44 y=240 width=28 height=32 xoffset=4 yoffset=1 xadvance=29 page=0 chnl=0
char id=76 x=44 y=274 width=20 height=32 xoffset=4 yoffset=1 xadvance=23 page=0 chnl=0
char id=77 x=44 y=308 width=30 height=32 xoffset=4 yoffset=1 xadvance=35 page=0 chnl=0
char id=78 x=44 y=342 width=28 height=32 xoffset=4 yoffset=1 xadvance=32 page=0 chnl=0
char id=79 x=76 y=38 width=32 height=42 xoffset=2 yoffset=-4 xadvance=33 page=0 chnl=0
char id=80 x=180 y=2 width=28 height=32 xoffset=4 yoffset=1 xadvance=28 page=0 chnl=0
char id=81 x=76 y=82 width=32 height=40 xoffset=2 yoffset=-4 xadvance=33 page=0 chnl=0
char id=82 x=210 y=2 width=28 height=32 xoffset=4 yoffset=1 xadvance=28 page=0 chnl=0
char id=83 x=76 y=124 width=26 height=38 xoffset=2 yoffset=-2 xadvance=26 page=0 chnl=0
char id=84 x=240 y=2 width=24 height=32 xoffset=1 yoffset=1 xadvance=23 page=0 chnl=0
char id=85 x=266 y=2 width=26 height=32 xoffset=4 yoffset=1 xadvance=29 page=0 chnl=0
char id=86 x=294 y=2 width=30 height=32 xoffset=1 yoffset=1 xadvance=29 page=0 chnl=0
char id=87 x=326 y=2 width=40 height=32 xoffset=1 yoffset=1 xadvance=38 page=0 chnl=0
char id=88 x=368 y=2 width=28 height=32 xoffset=1 yoffset=1 xadvance=27 page=0 chnl=0
char id=89 x=398 y=2 width=28 height=32 xoffset=1 yoffset=1 xadvance=27 page=0 chnl=0
char id=90 x=76 y=164 width=26 height=32 xoffset=1 yoffset=1 xadvance=25 page=0 chnl=0
char id=97 x=76 y=198 width=32 height=32 xoffset=1 yoffset=1 xadvance=29 page=0 chnl=0
char id=98 x=76 y=232 width=24 height=32 xoffset=4 yoffset=1 xadvance=28 page=0 chnl=0
char id=99 x=76 y=266 width=30 height=32 xoffset=2 yoffset=1 xadvance=32 page=0 chnl=0
char id=100 x=76 y=300 width=32 height=32 xoffset=4 yoffset=1 xadvance=30 page=0 chnl=0
char id=101 x=76 y=334 width=20 height=32 xoffset=4 yoffset=1 xadvance=24 page=0 chnl=0
char id=102 x=110 y=38 width=20 height=32 xoffset=4 yoffset=1 xadvance=23 page=0 chnl=0
char id=103 x=132 y=38 width=30 height=32 xoffset=2 yoffset=1 xadvance=32 page=0 chnl=0
char id=104 x=164 y=38 width=26 height=32 xoffset=4 yoffset=1 xadvance=31 page=0 chnl=0
char id=105 x=110 y=72 width=18 height=32 xoffset=2 yoffset=1 xadvance=17 page=0 chnl=0
char id=106 x=192 y=38 width=24 height=32 xoffset=2 yoffset=1 xadvance=27 page=0 chnl=0
char id=107 x=218 y=38 width=28 height=32 xoffset=4 yoffset=1 xadvance=29 page=0 chnl=0
char id=108 x=110 y=106 width=20 height=32 xoffset=4 yoffset=1 xadvance=23 page=0 chnl=0
char id=109 x=248 y=38 width=30 height=32 xoffset=4 yoffset=1 xadvance=35 page=0 chnl=0
char id=110 x=280 y=38 width=28 height=32 xoffset=4 yoffset=1 xadvance=32 page=0 chnl=0
char id=111 x=132 y=72 width=32 height=42 xoffset=2 yoffset=-4 xadvance=33 page=0 chnl=0
char id=112 x=310 y=38 width=28 height=32 xoffset=4 yoffset=1 xadvance=28 page=0 chnl=0
char id=113 x=132 y=116 width=32 height=40 xoffset=2 yoffset=-4 xadvance=33 page=0 chnl=0
char id=114 x=340 y=38 width=28 height=32 xoffset=4 yoffset=1 xadvance=28 page=0 chnl=0
char id=115 x=132 y=158 width=26 height=38 xoffset=2 yoffset=-2 xadvance=26 page=0 chnl=0
char id=116 x=370 y=38 width=24 height=32 xoffset=1 yoffset=1 xadvance=23 page=0 chnl=0
char id=117 x=396 y=38 width=26 height=32 xoffset=4 yoffset=1 xadvance=29 page=0 chnl=0
char id=118 x=132 y=198 width=30 height=32 xoffset=1 yoffset=1 xadvance=29 page=0 chnl=0
char id=119 x=166 y=72 width=40 height=32 xoffset=1 yoffset=1 xadvance=38 page=0 chnl=0
char id=120 x=132 y=232 width=28 height=32 xoffset=1 yoffset=1 xadvance=27 page=0 chnl=0
char id=121 x=132 y=266 width=28 height=32 xoffset=1 yoffset=1 xadvance=27 page=0 chnl=0
char id=122 x=132 y=300 width=26 height=32 xoffset=1 yoffset=1 xadvance=25 page=0 chnl=0
char id=1040 x=132 y=334 width=32 height=32 xoffset=1 yoffset=1 xadvance=29 page=0 chnl=0
char id=1041 x=208 y=72 width=28 height=32 xoffset=4 yoffset=1 xadvance=28 page=0 chnl=0
char id=1042 x=238 y=72 width=24 height=32 xoffset=4 yoffset=1 xadvance=28 page=0 chnl=0
char id=1043 x=110 y=182 width=20 height=32 xoffset=4 yoffset=1 xadvance=23 page=0 chnl=0
char id=1044 x=166 y=106 width=32 height=34 xoffset=1 yoffset=2 xadvance=29 page=0 chnl=0
char id=1045 x=110 y=216 width=20 height=32 xoffset=4 yoffset=1 xadvance=24 page=0 chnl=0
char id=1025 x=110 y=140 width=20 height=40 xoffset=4 yoffset=-7 xadvance=24 page=0 chnl=0
char id=1046 x=264 y=72 width=42 height=32 xoffset=1 yoffset=1 xadvance=40 page=0 chnl=0
char id=1047 x=308 y=72 width=24 height=32 xoffset=2 yoffset=1 xadvance=24 page=0 chnl=0
char id=1048 x=334 y=72 width=28 height=32 xoffset=4 yoffset=1 xadvance=32 page=0 chnl=0
char id=1049 x=166 y=142 width=28 height=40 xoffset=4 yoffset=-7 xadvance=32 page=0 chnl=0
char id=1050 x=364 y=72 width=28 height=32 xoffset=4 yoffset=1 xadvance=29 page=0 chnl=0
char id=1051 x=394 y=72 width=32 height=32 xoffset=1 yoffset=1 xadvance=29 page=0 chnl=0
char id=1052 x=166 y=184 width=30 height=32 xoffset=4 yoffset=1 xadvance=35 page=0 chnl=0
char id=1053 x=166 y=218 width=26 height=32 xoffset=4 yoffset=1 xadvance=31 page=0 chnl=0
char id=1054 x=166 y=252 width=32 height=42 xoffset=2 yoffset=-4 xadvance=33 page=0 chnl=0
char id=1055 x=166 y=296 width=26 height=32 xoffset=4 yoffset=1 xadvance=31 page=0 chnl=0
char id=1056 x=166 y=330 width=28 height=32 xoffset=4 yoffset=1 xadvance=28 page=0 chnl=0
char id=1057 x=200 y=106 width=30 height=32 xoffset=2 yoffset=1 xadvance=32 page=0 chnl=0
char id=1058 x=232 y=106 width=24 height=32 xoffset=1 yoffset=1 xadvance=23 page=0 chnl=0
char id=1059 x=258 y=106 width=30 height=32 xoffset=1 yoffset=1 xadvance=27 page=0 chnl=0
char id=1060 x=290 y=106 width=36 height=32 xoffset=2 yoffset=1 xadvance=37 page=0 chnl=0
char id=1061 x=328 y=106 width=28 height=32 xoffset=1 yoffset=1 xadvance=27 page=0 chnl=0
char id=1062 x=200 y=140 width=28 height=34 xoffset=4 yoffset=2 xadvance=30 page=0 chnl=0
char id=1063 x=358 y=106 width=24 height=32 xoffset=3 yoffset=1 xadvance=28 page=0 chnl=0
char id=1064 x=384 y=106 width=38 height=32 xoffset=4 yoffset=1 xadvance=43 page=0 chnl=0
char id=1065 x=230 y=140 width=42 height=34 xoffset=4 yoffset=2 xadvance=43 page=0 chnl=0
char id=1066 x=274 y=140 width=32 height=32 xoffset=1 yoffset=1 xadvance=29 page=0 chnl=0
char id=1067 x=308 y=140 width=38 height=32 xoffset=4 yoffset=1 xadvance=42 page=0 chnl=0
char id=1068 x=200 y=176 width=28 height=32 xoffset=4 yoffset=1 xadvance=28 page=0 chnl=0
char id=1069 x=348 y=140 width=30 height=32 xoffset=2 yoffset=1 xadvance=32 page=0 chnl=0
char id=1070 x=230 y=176 width=42 height=42 xoffset=4 yoffset=-4 xadvance=45 page=0 chnl=0
char id=1071 x=200 y=210 width=28 height=32 xoffset=0 yoffset=1 xadvance=29 page=0 chnl=0
char id=1072 x=380 y=140 width=32 height=32 xoffset=1 yoffset=1 xadvance=29 page=0 chnl=0
char id=1073 x=200 y=244 width=28 height=32 xoffset=4 yoffset=1 xadvance=28 page=0 chnl=0
char id=1074 x=200 y=278 width=24 height=32 xoffset=4 yoffset=1 xadvance=28 page=0 chnl=0
char id=1075 x=110 y=250 width=20 height=32 xoffset=4 yoffset=1 xadvance=23 page=0 chnl=0
char id=1076 x=230 y=220 width=32 height=34 xoffset=1 yoffset=2 xadvance=29 page=0 chnl=0
char id=1077 x=110 y=284 width=20 height=32 xoffset=4 yoffset=1 xadvance=24 page=0 chnl=0
char id=1105 x=110 y=318 width=20 height=40 xoffset=4 yoffset=-7 xadvance=24 page=0 chnl=0
char id=1078 x=230 y=256 width=42 height=32 xoffset=1 yoffset=1 xadvance=40 page=0 chnl=0
char id=1079 x=200 y=312 width=24 height=32 xoffset=2 yoffset=1 xadvance=24 page=0 chnl=0
char id=1080 x=200 y=346 width=28 height=32 xoffset=4 yoffset=1 xadvance=32 page=0 chnl=0
char id=1081 x=230 y=290 width=28 height=40 xoffset=4 yoffset=-7 xadvance=32 page=0 chnl=0
char id=1082 x=414 y=140 width=28 height=32 xoffset=4 yoffset=1 xadvance=29 page=0 chnl=0
char id=1083 x=230 y=332 width=32 height=32 xoffset=1 yoffset=1 xadvance=29 page=0 chnl=0
char id=1084 x=274 y=176 width=30 height=32 xoffset=4 yoffset=1 xadvance=35 page=0 chnl=0
char id=1085 x=306 y=176 width=26 height=32 xoffset=4 yoffset=1 xadvance=31 page=0 chnl=0
char id=1086 x=274 y=210 width=32 height=42 xoffset=2 yoffset=-4 xadvance=33 page=0 chnl=0
char id=1087 x=334 y=176 width=26 height=32 xoffset=4 yoffset=1 xadvance=31 page=0 chnl=0
char id=1088 x=362 y=176 width=28 height=32 xoffset=4 yoffset=1 xadvance=28 page=0 chnl=0
char id=1089 x=392 y=176 width=30 height=32 xoffset=2 yoffset=1 xadvance=32 page=0 chnl=0
char id=1090 x=274 y=254 width=24 height=32 xoffset=1 yoffset=1 xadvance=23 page=0 chnl=0
char id=1091 x=274 y=288 width=30 height=32 xoffset=1 yoffset=1 xadvance=27 page=0 chnl=0
char id=1092 x=308 y=210 width=36 height=32 xoffset=2 yoffset=1 xadvance=37 page=0 chnl=0
char id=1093 x=274 y=322 width=28 height=32 xoffset=1 yoffset=1 xadvance=27 page=0 chnl=0
char id=1094 x=308 y=244 width=28 height=34 xoffset=4 yoffset=2 xadvance=30 page=0 chnl=0
char id=1095 x=346 y=210 width=24 height=32 xoffset=3 yoffset=1 xadvance=28 page=0 chnl=0
char id=1096 x=372 y=210 width=38 height=32 xoffset=4 yoffset=1 xadvance=43 page=0 chnl=0
char id=1097 x=338 y=244 width=42 height=34 xoffset=4 yoffset=2 xadvance=43 page=0 chnl=0
char id=1098 x=412 y=210 width=32 height=32 xoffset=1 yoffset=1 xadvance=30 page=0 chnl=0
char id=1099 x=382 y=244 width=38 height=32 xoffset=4 yoffset=1 xadvance=42 page=0 chnl=0
char id=1100 x=308 y=280 width=28 height=32 xoffset=4 yoffset=1 xadvance=28 page=0 chnl=0
char id=1101 x=338 y=280 width=30 height=32 xoffset=2 yoffset=1 xadvance=32 page=0 chnl=0
char id=1102 x=370 y=280 width=42 height=42 xoffset=4 yoffset=-4 xadvance=45 page=0 chnl=0
char id=1103 x=308 y=314 width=28 height=32 xoffset=0 yoffset=1 xadvance=29 page=0 chnl=0
char id=58 x=6 y=14 width=10 height=24 xoffset=3 yoffset=9 xadvance=13 page=0 chnl=0
char id=46 x=6 y=2 width=10 height=10 xoffset=2 yoffset=23 xadvance=12 page=0 chnl=0
kernings count=84
kerning first=65 second=118 amount=-1
kerning first=1043 second=1076 amount=-1
kerning first=108 second=84 amount=-1
kerning first=86 second=106 amount=-1
kerning first=1065 second=1040 amount=1
kerning first=1062 second=1040 amount=1
kerning first=97 second=89 amount=-1
kerning first=1043 second=1051 amount=-1
kerning first=1051 second=1044 amount=1
kerning first=1044 second=1095 amount=-1
kerning first=1043 second=1072 amount=-1
kerning first=1059 second=1040 amount=-1
kerning first=108 second=86 amount=-1
kerning first=89 second=106 amount=-1
kerning first=1040 second=1095 amount=-1
kerning first=55 second=52 amount=-1
kerning first=1044 second=1044 amount=1
kerning first=1051 second=1063 amount=-1
kerning first=1043 second=1044 amount=-1
kerning first=84 second=74 amount=-1
kerning first=1040 second=1044 amount=1
kerning first=55 second=54 amount=-1
kerning first=1091 second=1083 amount=-1
kerning first=86 second=74 amount=-1
kerning first=84 second=106 amount=-1
kerning first=1044 second=1063 amount=-1
kerning first=1044 second=1040 amount=1
kerning first=1043 second=1040 amount=-1
kerning first=108 second=89 amount=-1
kerning first=1040 second=1063 amount=-1
kerning first=76 second=86 amount=-1
kerning first=116 second=106 amount=-1
kerning first=118 second=106 amount=-1
kerning first=1091 second=1076 amount=-1
kerning first=108 second=121 amount=-1
kerning first=97 second=121 amount=-1
kerning first=76 second=89 amount=-1
kerning first=1091 second=1051 amount=-1
kerning first=97 second=118 amount=-1
kerning first=1075 second=1083 amount=-1
kerning first=1083 second=1076 amount=1
kerning first=1091 second=1072 amount=-1
kerning first=108 second=116 amount=-1
kerning first=65 second=86 amount=-1
kerning first=86 second=65 amount=-1
kerning first=1091 second=1044 amount=-1
kerning first=65 second=89 amount=-1
kerning first=89 second=65 amount=-1
kerning first=1083 second=1095 amount=-1
kerning first=1075 second=1076 amount=-1
kerning first=1072 second=1076 amount=1
kerning first=121 second=65 amount=-1
kerning first=1076 second=1051 amount=1
kerning first=1075 second=1051 amount=-1
kerning first=1083 second=1044 amount=1
kerning first=1091 second=1040 amount=-1
kerning first=1059 second=1083 amount=-1
kerning first=118 second=65 amount=-1
kerning first=1076 second=1095 amount=-1
kerning first=1075 second=1072 amount=-1
kerning first=1072 second=1095 amount=-1
kerning first=1076 second=1044 amount=1
kerning first=1083 second=1063 amount=-1
kerning first=1075 second=1044 amount=-1
kerning first=1083 second=1040 amount=1
kerning first=1059 second=1076 amount=-1
kerning first=121 second=97 amount=-1
kerning first=1043 second=1083 amount=-1
kerning first=1059 second=1051 amount=-1
kerning first=1076 second=1063 amount=-1
kerning first=1051 second=1076 amount=1
kerning first=1076 second=1040 amount=1
kerning first=1075 second=1040 amount=-1
kerning first=1056 second=1051 amount=-1
kerning first=1065 second=1044 amount=1
kerning first=1072 second=1063 amount=-1
kerning first=118 second=97 amount=-1
kerning first=1059 second=1072 amount=-1
kerning first=1062 second=1044 amount=1
kerning first=65 second=121 amount=-1
kerning first=1061 second=1044 amount=1
kerning first=86 second=97 amount=-1
kerning first=1044 second=1076 amount=1
kerning first=1051 second=1095 amount=-1
